…
# Data

## Reading in the Data

Running the code chunk below reads in the online news popularity data
set using `read_csv()`.

``` r
newsOriginal <- read_csv(file = "./OnlineNewsPopularity.csv")
newsOriginal
```

    ## # A tibble: 39,644 × 61
    ##    url      timed…¹ n_tok…² n_tok…³ n_uni…⁴ n_non…⁵ n_non…⁶ num_h…⁷ num_s…⁸ num_i…⁹ num_v…˟ avera…˟ num_k…˟ data_…˟ data_…˟ data_…˟ data_…˟ data_…˟
    ##    <chr>      <dbl>   <dbl>   <dbl>   <dbl>   <dbl>   <dbl>   <dbl>   <dbl>   <dbl>   <dbl>   <dbl>   <dbl>   <dbl>   <dbl>   <dbl>   <dbl>   <dbl>
    ##  1 http://…     731      12     219   0.664    1.00   0.815       4       2       1       0    4.68       5       0       1       0       0       0
    ##  2 http://…     731       9     255   0.605    1.00   0.792       3       1       1       0    4.91       4       0       0       1       0       0
    ##  3 http://…     731       9     211   0.575    1.00   0.664       3       1       1       0    4.39       6       0       0       1       0       0
    ##  4 http://…     731       9     531   0.504    1.00   0.666       9       0       1       0    4.40       7       0       1       0       0       0
    ##  5 http://…     731      13    1072   0.416    1.00   0.541      19      19      20       0    4.68       7       0       0       0       0       1
    ##  6 http://…     731      10     370   0.560    1.00   0.698       2       2       0       0    4.36       9       0       0       0       0       1
    ##  7 http://…     731       8     960   0.418    1.00   0.550      21      20      20       0    4.65      10       1       0       0       0       0
    ##  8 http://…     731      12     989   0.434    1.00   0.572      20      20      20       0    4.62       9       0       0       0       0       1
    ##  9 http://…     731      11      97   0.670    1.00   0.837       2       0       0       0    4.86       7       0       0       0       0       1
    ## 10 http://…     731      10     231   0.636    1.00   0.797       4       1       1       1    5.09       5       0       0       0       0       0
    ## # … with 39,634 more rows, 43 more variables: data_channel_is_world <dbl>, kw_min_min <dbl>, kw_max_min <dbl>, kw_avg_min <dbl>, kw_min_max <dbl>,
    ## #   kw_max_max <dbl>, kw_avg_max <dbl>, kw_min_avg <dbl>, kw_max_avg <dbl>, kw_avg_avg <dbl>, self_reference_min_shares <dbl>,
    ## #   self_reference_max_shares <dbl>, self_reference_avg_sharess <dbl>, weekday_is_monday <dbl>, weekday_is_tuesday <dbl>,
    ## #   weekday_is_wednesday <dbl>, weekday_is_thursday <dbl>, weekday_is_friday <dbl>, weekday_is_saturday <dbl>, weekday_is_sunday <dbl>,
    ## #   is_weekend <dbl>, LDA_00 <dbl>, LDA_01 <dbl>, LDA_02 <dbl>, LDA_03 <dbl>, LDA_04 <dbl>, global_subjectivity <dbl>,
    ## #   global_sentiment_polarity <dbl>, global_rate_positive_words <dbl>, global_rate_negative_words <dbl>, rate_positive_words <dbl>,
    ## #   rate_negative_words <dbl>, avg_positive_polarity <dbl>, min_positive_polarity <dbl>, max_positive_polarity <dbl>, …

## Modifying the Data

Running the code chunk below subsets the data to only include
observations for the data channel we’re interested in.

``` r
news <- newsOriginal %>% filter(get(params$dataChannel) == 1)
news
```

    ## # A tibble: 2,099 × 61
    ##    url      timed…¹ n_tok…² n_tok…³ n_uni…⁴ n_non…⁵ n_non…⁶ num_h…⁷ num_s…⁸ num_i…⁹ num_v…˟ avera…˟ num_k…˟ data_…˟ data_…˟ data_…˟ data_…˟ data_…˟
    ##    <chr>      <dbl>   <dbl>   <dbl>   <dbl>   <dbl>   <dbl>   <dbl>   <dbl>   <dbl>   <dbl>   <dbl>   <dbl>   <dbl>   <dbl>   <dbl>   <dbl>   <dbl>
    ##  1 http://…     731       8     960   0.418    1.00   0.550      21      20      20       0    4.65      10       1       0       0       0       0
    ##  2 http://…     731      10     187   0.667    1.00   0.800       7       0       1       0    4.66       7       1       0       0       0       0
    ##  3 http://…     731      11     103   0.689    1.00   0.806       3       1       1       0    4.84       6       1       0       0       0       0
    ##  4 http://…     731      10     243   0.619    1.00   0.824       1       1       0       0    4.38      10       1       0       0       0       0
    ##  5 http://…     731       8     204   0.586    1.00   0.698       7       2       1       0    4.67       8       1       0       0       0       0
    ##  6 http://…     731      11     315   0.551    1.00   0.702       4       4       1       0    4.38      10       1       0       0       0       0
    ##  7 http://…     731      10    1190   0.409    1.00   0.561      25      24      20       0    4.62       8       1       0       0       0       0
    ##  8 http://…     731       6     374   0.641    1.00   0.828       7       0       1       0    4.91       8       1       0       0       0       0
    ##  9 http://…     730      12     499   0.513    1.00   0.662      14       1       1       0    5.08      10       1       0       0       0       0
    ## 10 http://…     729      11     223   0.662    1.00   0.826       5       3       0       0    4.55       6       1       0       0       0       0
    ## # … with 2,089 more rows, 43 more variables: data_channel_is_world <dbl>, kw_min_min <dbl>, kw_max_min <dbl>, kw_avg_min <dbl>, kw_min_max <dbl>,
    ## #   kw_max_max <dbl>, kw_avg_max <dbl>, kw_min_avg <dbl>, kw_max_avg <dbl>, kw_avg_avg <dbl>, self_reference_min_shares <dbl>,
    ## #   self_reference_max_shares <dbl>, self_reference_avg_sharess <dbl>, weekday_is_monday <dbl>, weekday_is_tuesday <dbl>,
    ## #   weekday_is_wednesday <dbl>, weekday_is_thursday <dbl>, weekday_is_friday <dbl>, weekday_is_saturday <dbl>, weekday_is_sunday <dbl>,
    ## #   is_weekend <dbl>, LDA_00 <dbl>, LDA_01 <dbl>, LDA_02 <dbl>, LDA_03 <dbl>, LDA_04 <dbl>, global_subjectivity <dbl>,
    ## #   global_sentiment_polarity <dbl>, global_rate_positive_words <dbl>, global_rate_negative_words <dbl>, rate_positive_words <dbl>,
    ## #   rate_negative_words <dbl>, avg_positive_polarity <dbl>, min_positive_polarity <dbl>, max_positive_polarity <dbl>, …
…
news$weekday <- factor(news$weekday, levels=c("Monday", "Tuesday", "Wednesday",
                                              "Thursday", "Friday", "Saturday", "Sunday"))
levels(news$weekday)
```

    ## [1] "Monday"    "Tuesday"   "Wednesday" "Thursday"  "Friday"    "Saturday"  "Sunday"

``` r
news
```

    ## # A tibble: 2,099 × 62
    ##    url       shares weekday timed…¹ n_tok…² n_tok…³ n_uni…⁴ n_non…⁵ n_non…⁶ num_h…⁷ num_s…⁸ num_i…⁹ num_v…˟ avera…˟ num_k…˟ data_…˟ data_…˟ data_…˟
    ##    <chr>      <dbl> <fct>     <dbl>   <dbl>   <dbl>   <dbl>   <dbl>   <dbl>   <dbl>   <dbl>   <dbl>   <dbl>   <dbl>   <dbl>   <dbl>   <dbl>   <dbl>
    ##  1 http://m…    556 Monday      731       8     960   0.418    1.00   0.550      21      20      20       0    4.65      10       1       0       0
    ##  2 http://m…   1900 Monday      731      10     187   0.667    1.00   0.800       7       0       1       0    4.66       7       1       0       0
    ##  3 http://m…   5700 Monday      731      11     103   0.689    1.00   0.806       3       1       1       0    4.84       6       1       0       0
    ##  4 http://m…    462 Monday      731      10     243   0.619    1.00   0.824       1       1       0       0    4.38      10       1       0       0
    ##  5 http://m…   3600 Monday      731       8     204   0.586    1.00   0.698       7       2       1       0    4.67       8       1       0       0
    ##  6 http://m…    343 Monday      731      11     315   0.551    1.00   0.702       4       4       1       0    4.38      10       1       0       0
    ##  7 http://m…    507 Monday      731      10    1190   0.409    1.00   0.561      25      24      20       0    4.62       8       1       0       0
    ##  8 http://m…    552 Monday      731       6     374   0.641    1.00   0.828       7       0       1       0    4.91       8       1       0       0
    ##  9 http://m…   1200 Tuesday     730      12     499   0.513    1.00   0.662      14       1       1       0    5.08      10       1       0       0
    ## 10 http://m…   1900 Wednes…     729      11     223   0.662    1.00   0.826       5       3       0       0    4.55       6       1       0       0
    ## # … with 2,089 more rows, 44 more variables: data_channel_is_socmed <dbl>, data_channel_is_tech <dbl>, data_channel_is_world <dbl>,
    ## #   kw_min_min <dbl>, kw_max_min <dbl>, kw_avg_min <dbl>, kw_min_max <dbl>, kw_max_max <dbl>, kw_avg_max <dbl>, kw_min_avg <dbl>,
    ## #   kw_max_avg <dbl>, kw_avg_avg <dbl>, self_reference_min_shares <dbl>, self_reference_max_shares <dbl>, self_reference_avg_sharess <dbl>,
    ## #   weekday_is_monday <dbl>, weekday_is_tuesday <dbl>, weekday_is_wednesday <dbl>, weekday_is_thursday <dbl>, weekday_is_friday <dbl>,
    ## #   weekday_is_saturday <dbl>, weekday_is_sunday <dbl>, is_weekend <dbl>, LDA_00 <dbl>, LDA_01 <dbl>, LDA_02 <dbl>, LDA_03 <dbl>, LDA_04 <dbl>,
    ## #   global_subjectivity <dbl>, global_sentiment_polarity <dbl>, global_rate_positive_words <dbl>, global_rate_negative_words <dbl>,
    ## #   rate_positive_words <dbl>, rate_negative_words <dbl>, avg_positive_polarity <dbl>, min_positive_polarity <dbl>, max_positive_polarity <dbl>, …
…
``` r
set.seed(100)
newsIndex <- createDataPartition(news$shares, p = 0.7, list = FALSE)

newsTrain <- news[newsIndex, ]
newsTest <- news[-newsIndex, ]

newsTrain
```

    ## # A tibble: 1,472 × 62
    ##    url       shares weekday timed…¹ n_tok…² n_tok…³ n_uni…⁴ n_non…⁵ n_non…⁶ num_h…⁷ num_s…⁸ num_i…⁹ num_v…˟ avera…˟ num_k…˟ data_…˟ data_…˟ data_…˟
    ##    <chr>      <dbl> <fct>     <dbl>   <dbl>   <dbl>   <dbl>   <dbl>   <dbl>   <dbl>   <dbl>   <dbl>   <dbl>   <dbl>   <dbl>   <dbl>   <dbl>   <dbl>
    ##  1 http://m…    556 Monday      731       8     960   0.418    1.00   0.550      21      20      20       0    4.65      10       1       0       0
    ##  2 http://m…   1900 Monday      731      10     187   0.667    1.00   0.800       7       0       1       0    4.66       7       1       0       0
    ##  3 http://m…   5700 Monday      731      11     103   0.689    1.00   0.806       3       1       1       0    4.84       6       1       0       0
    ##  4 http://m…    462 Monday      731      10     243   0.619    1.00   0.824       1       1       0       0    4.38      10       1       0       0
    ##  5 http://m…   3600 Monday      731       8     204   0.586    1.00   0.698       7       2       1       0    4.67       8       1       0       0
    ##  6 http://m…    343 Monday      731      11     315   0.551    1.00   0.702       4       4       1       0    4.38      10       1       0       0
    ##  7 http://m…    507 Monday      731      10    1190   0.409    1.00   0.561      25      24      20       0    4.62       8       1       0       0
    ##  8 http://m…   1900 Wednes…     729      11     223   0.662    1.00   0.826       5       3       0       0    4.55       6       1       0       0
    ##  9 http://m…   1100 Wednes…     729       7    1007   0.438    1.00   0.565      24      23      20       0    4.79      10       1       0       0
    ## 10 http://m…   2300 Wednes…     729       9     455   0.496    1.00   0.659      10       5       1       0    4.69       9       1       0       0
    ## # … with 1,462 more rows, 44 more variables: data_channel_is_socmed <dbl>, data_channel_is_tech <dbl>, data_channel_is_world <dbl>,
    ## #   kw_min_min <dbl>, kw_max_min <dbl>, kw_avg_min <dbl>, kw_min_max <dbl>, kw_max_max <dbl>, kw_avg_max <dbl>, kw_min_avg <dbl>,
    ## #   kw_max_avg <dbl>, kw_avg_avg <dbl>, self_reference_min_shares <dbl>, self_reference_max_shares <dbl>, self_reference_avg_sharess <dbl>,
    ## #   weekday_is_monday <dbl>, weekday_is_tuesday <dbl>, weekday_is_wednesday <dbl>, weekday_is_thursday <dbl>, weekday_is_friday <dbl>,
    ## #   weekday_is_saturday <dbl>, weekday_is_sunday <dbl>, is_weekend <dbl>, LDA_00 <dbl>, LDA_01 <dbl>, LDA_02 <dbl>, LDA_03 <dbl>, LDA_04 <dbl>,
    ## #   global_subjectivity <dbl>, global_sentiment_polarity <dbl>, global_rate_positive_words <dbl>, global_rate_negative_words <dbl>,
    ## #   rate_positive_words <dbl>, rate_negative_words <dbl>, avg_positive_polarity <dbl>, min_positive_polarity <dbl>, max_positive_polarity <dbl>, …

``` r
newsTest
```

    ## # A tibble: 627 × 62
    ##    url       shares weekday timed…¹ n_tok…² n_tok…³ n_uni…⁴ n_non…⁵ n_non…⁶ num_h…⁷ num_s…⁸ num_i…⁹ num_v…˟ avera…˟ num_k…˟ data_…˟ data_…˟ data_…˟
    ##    <chr>      <dbl> <fct>     <dbl>   <dbl>   <dbl>   <dbl>   <dbl>   <dbl>   <dbl>   <dbl>   <dbl>   <dbl>   <dbl>   <dbl>   <dbl>   <dbl>   <dbl>
    ##  1 http://m…    552 Monday      731       6     374   0.641    1.00   0.828       7       0       1       0    4.91       8       1       0       0
    ##  2 http://m…   1200 Tuesday     730      12     499   0.513    1.00   0.662      14       1       1       0    5.08      10       1       0       0
    ##  3 http://m…   1200 Wednes…     729      11    1099   0.412    1.00   0.557      28      24      20       0    4.58      10       1       0       0
    ##  4 http://m…   1700 Wednes…     729      14     318   0.633    1.00   0.838       7       0       1       0    4.43       7       1       0       0
    ##  5 http://m…   1000 Wednes…     729       7     144   0.723    1.00   0.857       9       6       1       0    4.83      10       1       0       0
    ##  6 http://m…    866 Wednes…     729      12     983   0.441    1.00   0.579      21      21      19       0    4.70      10       1       0       0
    ##  7 http://m…   1700 Wednes…     729      11    1058   0.410    1.00   0.546      26      23      20       0    4.67      10       1       0       0
    ##  8 http://m…   5600 Thursd…     728       6     397   0.512    1.00   0.661      11       0       1       0    5.35       8       1       0       0
    ##  9 http://m…   1200 Thursd…     728      12     270   0.577    1.00   0.709       6       4       1       0    4.71      10       1       0       0
    ## 10 http://m…   2400 Thursd…     728       8     279   0.609    1.00   0.771      13       3       1       0    5.09       6       1       0       0
    ## # … with 617 more rows, 44 more variables: data_channel_is_socmed <dbl>, data_channel_is_tech <dbl>, data_channel_is_world <dbl>,
    ## #   kw_min_min <dbl>, kw_max_min <dbl>, kw_avg_min <dbl>, kw_min_max <dbl>, kw_max_max <dbl>, kw_avg_max <dbl>, kw_min_avg <dbl>,
    ## #   kw_max_avg <dbl>, kw_avg_avg <dbl>, self_reference_min_shares <dbl>, self_reference_max_shares <dbl>, self_reference_avg_sharess <dbl>,
    ## #   weekday_is_monday <dbl>, weekday_is_tuesday <dbl>, weekday_is_wednesday <dbl>, weekday_is_thursday <dbl>, weekday_is_friday <dbl>,
    ## #   weekday_is_saturday <dbl>, weekday_is_sunday <dbl>, is_weekend <dbl>, LDA_00 <dbl>, LDA_01 <dbl>, LDA_02 <dbl>, LDA_03 <dbl>, LDA_04 <dbl>,
    ## #   global_subjectivity <dbl>, global_sentiment_polarity <dbl>, global_rate_positive_words <dbl>, global_rate_negative_words <dbl>,
    ## #   rate_positive_words <dbl>, rate_negative_words <dbl>, avg_positive_polarity <dbl>, min_positive_polarity <dbl>, max_positive_polarity <dbl>, …
…
