…
# Data

## Reading in the Data

Running the code chunk below reads in the online news popularity data
set using `read_csv()`.

``` r
newsOriginal <- read_csv(file = "./OnlineNewsPopularity.csv")
newsOriginal
```

    ## # A tibble: 39,644 × 61
    ##    url      timed…¹ n_tok…² n_tok…³ n_uni…⁴ n_non…⁵ n_non…⁶ num_h…⁷ num_s…⁸ num_i…⁹ num_v…˟ avera…˟ num_k…˟ data_…˟ data_…˟ data_…˟ data_…˟ data_…˟
    ##    <chr>      <dbl>   <dbl>   <dbl>   <dbl>   <dbl>   <dbl>   <dbl>   <dbl>   <dbl>   <dbl>   <dbl>   <dbl>   <dbl>   <dbl>   <dbl>   <dbl>   <dbl>
    ##  1 http://…     731      12     219   0.664    1.00   0.815       4       2       1       0    4.68       5       0       1       0       0       0
    ##  2 http://…     731       9     255   0.605    1.00   0.792       3       1       1       0    4.91       4       0       0       1       0       0
    ##  3 http://…     731       9     211   0.575    1.00   0.664       3       1       1       0    4.39       6       0       0       1       0       0
    ##  4 http://…     731       9     531   0.504    1.00   0.666       9       0       1       0    4.40       7       0       1       0       0       0
    ##  5 http://…     731      13    1072   0.416    1.00   0.541      19      19      20       0    4.68       7       0       0       0       0       1
    ##  6 http://…     731      10     370   0.560    1.00   0.698       2       2       0       0    4.36       9       0       0       0       0       1
    ##  7 http://…     731       8     960   0.418    1.00   0.550      21      20      20       0    4.65      10       1       0       0       0       0
    ##  8 http://…     731      12     989   0.434    1.00   0.572      20      20      20       0    4.62       9       0       0       0       0       1
    ##  9 http://…     731      11      97   0.670    1.00   0.837       2       0       0       0    4.86       7       0       0       0       0       1
    ## 10 http://…     731      10     231   0.636    1.00   0.797       4       1       1       1    5.09       5       0       0       0       0       0
    ## # … with 39,634 more rows, 43 more variables: data_channel_is_world <dbl>, kw_min_min <dbl>, kw_max_min <dbl>, kw_avg_min <dbl>, kw_min_max <dbl>,
    ## #   kw_max_max <dbl>, kw_avg_max <dbl>, kw_min_avg <dbl>, kw_max_avg <dbl>, kw_avg_avg <dbl>, self_reference_min_shares <dbl>,
    ## #   self_reference_max_shares <dbl>, self_reference_avg_sharess <dbl>, weekday_is_monday <dbl>, weekday_is_tuesday <dbl>,
    ## #   weekday_is_wednesday <dbl>, weekday_is_thursday <dbl>, weekday_is_friday <dbl>, weekday_is_saturday <dbl>, weekday_is_sunday <dbl>,
    ## #   is_weekend <dbl>, LDA_00 <dbl>, LDA_01 <dbl>, LDA_02 <dbl>, LDA_03 <dbl>, LDA_04 <dbl>, global_subjectivity <dbl>,
    ## #   global_sentiment_polarity <dbl>, global_rate_positive_words <dbl>, global_rate_negative_words <dbl>, rate_positive_words <dbl>,
    ## #   rate_negative_words <dbl>, avg_positive_polarity <dbl>, min_positive_polarity <dbl>, max_positive_polarity <dbl>, …

## Modifying the Data

Running the code chunk below subsets the data to only include
observations for the data channel we’re interested in.

``` r
news <- newsOriginal %>% filter(get(params$dataChannel) == 1)
news
```

    ## # A tibble: 7,057 × 61
    ##    url      timed…¹ n_tok…² n_tok…³ n_uni…⁴ n_non…⁵ n_non…⁶ num_h…⁷ num_s…⁸ num_i…⁹ num_v…˟ avera…˟ num_k…˟ data_…˟ data_…˟ data_…˟ data_…˟ data_…˟
    ##    <chr>      <dbl>   <dbl>   <dbl>   <dbl>   <dbl>   <dbl>   <dbl>   <dbl>   <dbl>   <dbl>   <dbl>   <dbl>   <dbl>   <dbl>   <dbl>   <dbl>   <dbl>
    ##  1 http://…     731      12     219   0.664    1.00   0.815       4       2       1       0    4.68       5       0       1       0       0       0
    ##  2 http://…     731       9     531   0.504    1.00   0.666       9       0       1       0    4.40       7       0       1       0       0       0
    ##  3 http://…     731      14     194   0.765    1.00   0.840       4       4       0       1    4.52       6       0       1       0       0       0
    ##  4 http://…     731      12     161   0.669    1.00   0.752       5       4       0       6    4.45      10       0       1       0       0       0
    ##  5 http://…     731      11     454   0.566    1.00   0.755       5       3       1       0    4.89       6       0       1       0       0       0
    ##  6 http://…     731      12     177   0.741    1.00   0.823       4       3       1       0    5.06       9       0       1       0       0       0
    ##  7 http://…     731       5     356   0.618    1.00   0.766       3       3      12       1    4.47      10       0       1       0       0       0
    ##  8 http://…     730      11     281   0.611    1.00   0.766       5       4       1       0    4.61       4       0       1       0       0       0
    ##  9 http://…     730      10     909   0.450    1.00   0.670       3       2       1       1    4.34       5       0       1       0       0       0
    ## 10 http://…     729      10     413   0.606    1.00   0.729       6       1      13       0    4.70       6       0       1       0       0       0
    ## # … with 7,047 more rows, 43 more variables: data_channel_is_world <dbl>, kw_min_min <dbl>, kw_max_min <dbl>, kw_avg_min <dbl>, kw_min_max <dbl>,
    ## #   kw_max_max <dbl>, kw_avg_max <dbl>, kw_min_avg <dbl>, kw_max_avg <dbl>, kw_avg_avg <dbl>, self_reference_min_shares <dbl>,
    ## #   self_reference_max_shares <dbl>, self_reference_avg_sharess <dbl>, weekday_is_monday <dbl>, weekday_is_tuesday <dbl>,
    ## #   weekday_is_wednesday <dbl>, weekday_is_thursday <dbl>, weekday_is_friday <dbl>, weekday_is_saturday <dbl>, weekday_is_sunday <dbl>,
    ## #   is_weekend <dbl>, LDA_00 <dbl>, LDA_01 <dbl>, LDA_02 <dbl>, LDA_03 <dbl>, LDA_04 <dbl>, global_subjectivity <dbl>,
    ## #   global_sentiment_polarity <dbl>, global_rate_positive_words <dbl>, global_rate_negative_words <dbl>, rate_positive_words <dbl>,
    ## #   rate_negative_words <dbl>, avg_positive_polarity <dbl>, min_positive_polarity <dbl>, max_positive_polarity <dbl>, …
…
news$weekday <- factor(news$weekday, levels=c("Monday", "Tuesday", "Wednesday",
                                              "Thursday", "Friday", "Saturday", "Sunday"))
levels(news$weekday)
```

    ## [1] "Monday"    "Tuesday"   "Wednesday" "Thursday"  "Friday"    "Saturday"  "Sunday"

``` r
news
```

    ## # A tibble: 7,057 × 62
    ##    url       shares weekday timed…¹ n_tok…² n_tok…³ n_uni…⁴ n_non…⁵ n_non…⁶ num_h…⁷ num_s…⁸ num_i…⁹ num_v…˟ avera…˟ num_k…˟ data_…˟ data_…˟ data_…˟
    ##    <chr>      <dbl> <fct>     <dbl>   <dbl>   <dbl>   <dbl>   <dbl>   <dbl>   <dbl>   <dbl>   <dbl>   <dbl>   <dbl>   <dbl>   <dbl>   <dbl>   <dbl>
    ##  1 http://m…    593 Monday      731      12     219   0.664    1.00   0.815       4       2       1       0    4.68       5       0       1       0
    ##  2 http://m…   1200 Monday      731       9     531   0.504    1.00   0.666       9       0       1       0    4.40       7       0       1       0
    ##  3 http://m…   2100 Monday      731      14     194   0.765    1.00   0.840       4       4       0       1    4.52       6       0       1       0
    ##  4 http://m…   1200 Monday      731      12     161   0.669    1.00   0.752       5       4       0       6    4.45      10       0       1       0
    ##  5 http://m…   4600 Monday      731      11     454   0.566    1.00   0.755       5       3       1       0    4.89       6       0       1       0
    ##  6 http://m…   1200 Monday      731      12     177   0.741    1.00   0.823       4       3       1       0    5.06       9       0       1       0
    ##  7 http://m…    631 Monday      731       5     356   0.618    1.00   0.766       3       3      12       1    4.47      10       0       1       0
    ##  8 http://m…   1300 Tuesday     730      11     281   0.611    1.00   0.766       5       4       1       0    4.61       4       0       1       0
    ##  9 http://m…   1700 Tuesday     730      10     909   0.450    1.00   0.670       3       2       1       1    4.34       5       0       1       0
    ## 10 http://m…    455 Wednes…     729      10     413   0.606    1.00   0.729       6       1      13       0    4.70       6       0       1       0
    ## # … with 7,047 more rows, 44 more variables: data_channel_is_socmed <dbl>, data_channel_is_tech <dbl>, data_channel_is_world <dbl>,
    ## #   kw_min_min <dbl>, kw_max_min <dbl>, kw_avg_min <dbl>, kw_min_max <dbl>, kw_max_max <dbl>, kw_avg_max <dbl>, kw_min_avg <dbl>,
    ## #   kw_max_avg <dbl>, kw_avg_avg <dbl>, self_reference_min_shares <dbl>, self_reference_max_shares <dbl>, self_reference_avg_sharess <dbl>,
    ## #   weekday_is_monday <dbl>, weekday_is_tuesday <dbl>, weekday_is_wednesday <dbl>, weekday_is_thursday <dbl>, weekday_is_friday <dbl>,
    ## #   weekday_is_saturday <dbl>, weekday_is_sunday <dbl>, is_weekend <dbl>, LDA_00 <dbl>, LDA_01 <dbl>, LDA_02 <dbl>, LDA_03 <dbl>, LDA_04 <dbl>,
    ## #   global_subjectivity <dbl>, global_sentiment_polarity <dbl>, global_rate_positive_words <dbl>, global_rate_negative_words <dbl>,
    ## #   rate_positive_words <dbl>, rate_negative_words <dbl>, avg_positive_polarity <dbl>, min_positive_polarity <dbl>, max_positive_polarity <dbl>, …
…
``` r
set.seed(100)
newsIndex <- createDataPartition(news$shares, p = 0.7, list = FALSE)

newsTrain <- news[newsIndex, ]
newsTest <- news[-newsIndex, ]

newsTrain
```

    ## # A tibble: 4,941 × 62
    ##    url       shares weekday timed…¹ n_tok…² n_tok…³ n_uni…⁴ n_non…⁵ n_non…⁶ num_h…⁷ num_s…⁸ num_i…⁹ num_v…˟ avera…˟ num_k…˟ data_…˟ data_…˟ data_…˟
    ##    <chr>      <dbl> <fct>     <dbl>   <dbl>   <dbl>   <dbl>   <dbl>   <dbl>   <dbl>   <dbl>   <dbl>   <dbl>   <dbl>   <dbl>   <dbl>   <dbl>   <dbl>
    ##  1 http://m…    593 Monday      731      12     219   0.664    1.00   0.815       4       2       1       0    4.68       5       0       1       0
    ##  2 http://m…   1200 Monday      731       9     531   0.504    1.00   0.666       9       0       1       0    4.40       7       0       1       0
    ##  3 http://m…   1200 Monday      731      12     161   0.669    1.00   0.752       5       4       0       6    4.45      10       0       1       0
    ##  4 http://m…   4600 Monday      731      11     454   0.566    1.00   0.755       5       3       1       0    4.89       6       0       1       0
    ##  5 http://m…   1200 Monday      731      12     177   0.741    1.00   0.823       4       3       1       0    5.06       9       0       1       0
    ##  6 http://m…    631 Monday      731       5     356   0.618    1.00   0.766       3       3      12       1    4.47      10       0       1       0
    ##  7 http://m…   1300 Tuesday     730      11     281   0.611    1.00   0.766       5       4       1       0    4.61       4       0       1       0
    ##  8 http://m…   1700 Tuesday     730      10     909   0.450    1.00   0.670       3       2       1       1    4.34       5       0       1       0
    ##  9 http://m…    455 Wednes…     729      10     413   0.606    1.00   0.729       6       1      13       0    4.70       6       0       1       0
    ## 10 http://m…   1900 Wednes…     729       7     376   0.569    1.00   0.687       3       2       0      11    4.46       9       0       1       0
    ## # … with 4,931 more rows, 44 more variables: data_channel_is_socmed <dbl>, data_channel_is_tech <dbl>, data_channel_is_world <dbl>,
    ## #   kw_min_min <dbl>, kw_max_min <dbl>, kw_avg_min <dbl>, kw_min_max <dbl>, kw_max_max <dbl>, kw_avg_max <dbl>, kw_min_avg <dbl>,
    ## #   kw_max_avg <dbl>, kw_avg_avg <dbl>, self_reference_min_shares <dbl>, self_reference_max_shares <dbl>, self_reference_avg_sharess <dbl>,
    ## #   weekday_is_monday <dbl>, weekday_is_tuesday <dbl>, weekday_is_wednesday <dbl>, weekday_is_thursday <dbl>, weekday_is_friday <dbl>,
    ## #   weekday_is_saturday <dbl>, weekday_is_sunday <dbl>, is_weekend <dbl>, LDA_00 <dbl>, LDA_01 <dbl>, LDA_02 <dbl>, LDA_03 <dbl>, LDA_04 <dbl>,
    ## #   global_subjectivity <dbl>, global_sentiment_polarity <dbl>, global_rate_positive_words <dbl>, global_rate_negative_words <dbl>,
    ## #   rate_positive_words <dbl>, rate_negative_words <dbl>, avg_positive_polarity <dbl>, min_positive_polarity <dbl>, max_positive_polarity <dbl>, …

``` r
newsTest
```

    ## # A tibble: 2,116 × 62
    ##    url       shares weekday timed…¹ n_tok…² n_tok…³ n_uni…⁴ n_non…⁵ n_non…⁶ num_h…⁷ num_s…⁸ num_i…⁹ num_v…˟ avera…˟ num_k…˟ data_…˟ data_…˟ data_…˟
    ##    <chr>      <dbl> <fct>     <dbl>   <dbl>   <dbl>   <dbl>   <dbl>   <dbl>   <dbl>   <dbl>   <dbl>   <dbl>   <dbl>   <dbl>   <dbl>   <dbl>   <dbl>
    ##  1 http://m…   2100 Monday      731      14     194   0.765    1.00   0.840       4       4       0       1    4.52       6       0       1       0
    ##  2 http://m…   6400 Wednes…     729       6     241   0.660    1.00   0.815       5       5       1       0    4.85       5       0       1       0
    ##  3 http://m…   1000 Wednes…     729      12     855   0.439    1.00   0.653       5       0       1       0    4.30       8       0       1       0
    ##  4 http://m…   1700 Wednes…     729       8     270   0.601    1.00   0.741       5       4       1      11    4.26      10       0       1       0
    ##  5 http://m…   4500 Thursd…     728      13     204   0.646    1.00   0.793       2       1       1       0    4.42       5       0       1       0
    ##  6 http://m…    427 Thursd…     728      12     246   0.702    1.00   0.850       8       3       1       0    4.44       6       0       1       0
    ##  7 http://m…    676 Thursd…     728      11     848   0.449    1.00   0.714       4       4       1       3    4.19       5       0       1       0
    ##  8 http://m…    484 Thursd…     728      13     577   0.412    1.00   0.553      16       7      11       0    4.45      10       0       1       0
    ##  9 http://m…    762 Thursd…     728      13     243   0.654    1.00   0.850       4       2       0       1    4.20       7       0       1       0
    ## 10 http://m…   1200 Thursd…     728       8    1015   0.484    1.00   0.647      38       7      11       3    4.95       9       0       1       0
    ## # … with 2,106 more rows, 44 more variables: data_channel_is_socmed <dbl>, data_channel_is_tech <dbl>, data_channel_is_world <dbl>,
    ## #   kw_min_min <dbl>, kw_max_min <dbl>, kw_avg_min <dbl>, kw_min_max <dbl>, kw_max_max <dbl>, kw_avg_max <dbl>, kw_min_avg <dbl>,
    ## #   kw_max_avg <dbl>, kw_avg_avg <dbl>, self_reference_min_shares <dbl>, self_reference_max_shares <dbl>, self_reference_avg_sharess <dbl>,
    ## #   weekday_is_monday <dbl>, weekday_is_tuesday <dbl>, weekday_is_wednesday <dbl>, weekday_is_thursday <dbl>, weekday_is_friday <dbl>,
    ## #   weekday_is_saturday <dbl>, weekday_is_sunday <dbl>, is_weekend <dbl>, LDA_00 <dbl>, LDA_01 <dbl>, LDA_02 <dbl>, LDA_03 <dbl>, LDA_04 <dbl>,
    ## #   global_subjectivity <dbl>, global_sentiment_polarity <dbl>, global_rate_positive_words <dbl>, global_rate_negative_words <dbl>,
    ## #   rate_positive_words <dbl>, rate_negative_words <dbl>, avg_positive_polarity <dbl>, min_positive_polarity <dbl>, max_positive_polarity <dbl>, …
…
