…
# Data

## Reading in the Data

Running the code chunk below reads in the online news popularity data
set using `read_csv()`.

``` r
newsOriginal <- read_csv(file = "./OnlineNewsPopularity.csv")
newsOriginal
```

    ## # A tibble: 39,644 × 61
    ##    url      timed…¹ n_tok…² n_tok…³ n_uni…⁴ n_non…⁵ n_non…⁶ num_h…⁷ num_s…⁸ num_i…⁹ num_v…˟ avera…˟ num_k…˟ data_…˟ data_…˟ data_…˟ data_…˟ data_…˟
    ##    <chr>      <dbl>   <dbl>   <dbl>   <dbl>   <dbl>   <dbl>   <dbl>   <dbl>   <dbl>   <dbl>   <dbl>   <dbl>   <dbl>   <dbl>   <dbl>   <dbl>   <dbl>
    ##  1 http://…     731      12     219   0.664    1.00   0.815       4       2       1       0    4.68       5       0       1       0       0       0
    ##  2 http://…     731       9     255   0.605    1.00   0.792       3       1       1       0    4.91       4       0       0       1       0       0
    ##  3 http://…     731       9     211   0.575    1.00   0.664       3       1       1       0    4.39       6       0       0       1       0       0
    ##  4 http://…     731       9     531   0.504    1.00   0.666       9       0       1       0    4.40       7       0       1       0       0       0
    ##  5 http://…     731      13    1072   0.416    1.00   0.541      19      19      20       0    4.68       7       0       0       0       0       1
    ##  6 http://…     731      10     370   0.560    1.00   0.698       2       2       0       0    4.36       9       0       0       0       0       1
    ##  7 http://…     731       8     960   0.418    1.00   0.550      21      20      20       0    4.65      10       1       0       0       0       0
    ##  8 http://…     731      12     989   0.434    1.00   0.572      20      20      20       0    4.62       9       0       0       0       0       1
    ##  9 http://…     731      11      97   0.670    1.00   0.837       2       0       0       0    4.86       7       0       0       0       0       1
    ## 10 http://…     731      10     231   0.636    1.00   0.797       4       1       1       1    5.09       5       0       0       0       0       0
    ## # … with 39,634 more rows, 43 more variables: data_channel_is_world <dbl>, kw_min_min <dbl>, kw_max_min <dbl>, kw_avg_min <dbl>, kw_min_max <dbl>,
    ## #   kw_max_max <dbl>, kw_avg_max <dbl>, kw_min_avg <dbl>, kw_max_avg <dbl>, kw_avg_avg <dbl>, self_reference_min_shares <dbl>,
    ## #   self_reference_max_shares <dbl>, self_reference_avg_sharess <dbl>, weekday_is_monday <dbl>, weekday_is_tuesday <dbl>,
    ## #   weekday_is_wednesday <dbl>, weekday_is_thursday <dbl>, weekday_is_friday <dbl>, weekday_is_saturday <dbl>, weekday_is_sunday <dbl>,
    ## #   is_weekend <dbl>, LDA_00 <dbl>, LDA_01 <dbl>, LDA_02 <dbl>, LDA_03 <dbl>, LDA_04 <dbl>, global_subjectivity <dbl>,
    ## #   global_sentiment_polarity <dbl>, global_rate_positive_words <dbl>, global_rate_negative_words <dbl>, rate_positive_words <dbl>,
    ## #   rate_negative_words <dbl>, avg_positive_polarity <dbl>, min_positive_polarity <dbl>, max_positive_polarity <dbl>, …

## Modifying the Data

Running the code chunk below subsets the data to only include
observations for the data channel we’re interested in.

``` r
news <- newsOriginal %>% filter(get(params$dataChannel) == 1)
news
```

    ## # A tibble: 6,258 × 61
    ##    url      timed…¹ n_tok…² n_tok…³ n_uni…⁴ n_non…⁵ n_non…⁶ num_h…⁷ num_s…⁸ num_i…⁹ num_v…˟ avera…˟ num_k…˟ data_…˟ data_…˟ data_…˟ data_…˟ data_…˟
    ##    <chr>      <dbl>   <dbl>   <dbl>   <dbl>   <dbl>   <dbl>   <dbl>   <dbl>   <dbl>   <dbl>   <dbl>   <dbl>   <dbl>   <dbl>   <dbl>   <dbl>   <dbl>
    ##  1 http://…     731       9     255   0.605    1.00   0.792       3       1       1       0    4.91       4       0       0       1       0       0
    ##  2 http://…     731       9     211   0.575    1.00   0.664       3       1       1       0    4.39       6       0       0       1       0       0
    ##  3 http://…     731       8     397   0.625    1.00   0.806      11       0       1       0    5.45       6       0       0       1       0       0
    ##  4 http://…     731      13     244   0.560    1.00   0.680       3       2       1       0    4.42       4       0       0       1       0       0
    ##  5 http://…     731      11     723   0.491    1.00   0.642      18       1       1       0    5.23       6       0       0       1       0       0
    ##  6 http://…     731       8     708   0.482    1.00   0.688       8       3       1       1    4.62       7       0       0       1       0       0
    ##  7 http://…     731      10     142   0.655    1.00   0.792       2       1       1       0    4.27       5       0       0       1       0       0
    ##  8 http://…     731      12     444   0.601    1.00   0.755       9       8      23       0    4.81      10       0       0       1       0       0
    ##  9 http://…     731       6     109   0.667    1.00   0.737       3       2       1       0    4.73       6       0       0       1       0       0
    ## 10 http://…     730      13     306   0.535    1.00   0.705       3       2       1       0    4.58      10       0       0       1       0       0
    ## # … with 6,248 more rows, 43 more variables: data_channel_is_world <dbl>, kw_min_min <dbl>, kw_max_min <dbl>, kw_avg_min <dbl>, kw_min_max <dbl>,
    ## #   kw_max_max <dbl>, kw_avg_max <dbl>, kw_min_avg <dbl>, kw_max_avg <dbl>, kw_avg_avg <dbl>, self_reference_min_shares <dbl>,
    ## #   self_reference_max_shares <dbl>, self_reference_avg_sharess <dbl>, weekday_is_monday <dbl>, weekday_is_tuesday <dbl>,
    ## #   weekday_is_wednesday <dbl>, weekday_is_thursday <dbl>, weekday_is_friday <dbl>, weekday_is_saturday <dbl>, weekday_is_sunday <dbl>,
    ## #   is_weekend <dbl>, LDA_00 <dbl>, LDA_01 <dbl>, LDA_02 <dbl>, LDA_03 <dbl>, LDA_04 <dbl>, global_subjectivity <dbl>,
    ## #   global_sentiment_polarity <dbl>, global_rate_positive_words <dbl>, global_rate_negative_words <dbl>, rate_positive_words <dbl>,
    ## #   rate_negative_words <dbl>, avg_positive_polarity <dbl>, min_positive_polarity <dbl>, max_positive_polarity <dbl>, …
…
news$weekday <- factor(news$weekday, levels=c("Monday", "Tuesday", "Wednesday",
                                              "Thursday", "Friday", "Saturday", "Sunday"))
levels(news$weekday)
```

    ## [1] "Monday"    "Tuesday"   "Wednesday" "Thursday"  "Friday"    "Saturday"  "Sunday"

``` r
news
```

    ## # A tibble: 6,258 × 62
    ##    url       shares weekday timed…¹ n_tok…² n_tok…³ n_uni…⁴ n_non…⁵ n_non…⁶ num_h…⁷ num_s…⁸ num_i…⁹ num_v…˟ avera…˟ num_k…˟ data_…˟ data_…˟ data_…˟
    ##    <chr>      <dbl> <fct>     <dbl>   <dbl>   <dbl>   <dbl>   <dbl>   <dbl>   <dbl>   <dbl>   <dbl>   <dbl>   <dbl>   <dbl>   <dbl>   <dbl>   <dbl>
    ##  1 http://m…    711 Monday      731       9     255   0.605    1.00   0.792       3       1       1       0    4.91       4       0       0       1
    ##  2 http://m…   1500 Monday      731       9     211   0.575    1.00   0.664       3       1       1       0    4.39       6       0       0       1
    ##  3 http://m…   3100 Monday      731       8     397   0.625    1.00   0.806      11       0       1       0    5.45       6       0       0       1
    ##  4 http://m…    852 Monday      731      13     244   0.560    1.00   0.680       3       2       1       0    4.42       4       0       0       1
    ##  5 http://m…    425 Monday      731      11     723   0.491    1.00   0.642      18       1       1       0    5.23       6       0       0       1
    ##  6 http://m…   3200 Monday      731       8     708   0.482    1.00   0.688       8       3       1       1    4.62       7       0       0       1
    ##  7 http://m…    575 Monday      731      10     142   0.655    1.00   0.792       2       1       1       0    4.27       5       0       0       1
    ##  8 http://m…    819 Monday      731      12     444   0.601    1.00   0.755       9       8      23       0    4.81      10       0       0       1
    ##  9 http://m…    732 Monday      731       6     109   0.667    1.00   0.737       3       2       1       0    4.73       6       0       0       1
    ## 10 http://m…   1200 Tuesday     730      13     306   0.535    1.00   0.705       3       2       1       0    4.58      10       0       0       1
    ## # … with 6,248 more rows, 44 more variables: data_channel_is_socmed <dbl>, data_channel_is_tech <dbl>, data_channel_is_world <dbl>,
    ## #   kw_min_min <dbl>, kw_max_min <dbl>, kw_avg_min <dbl>, kw_min_max <dbl>, kw_max_max <dbl>, kw_avg_max <dbl>, kw_min_avg <dbl>,
    ## #   kw_max_avg <dbl>, kw_avg_avg <dbl>, self_reference_min_shares <dbl>, self_reference_max_shares <dbl>, self_reference_avg_sharess <dbl>,
    ## #   weekday_is_monday <dbl>, weekday_is_tuesday <dbl>, weekday_is_wednesday <dbl>, weekday_is_thursday <dbl>, weekday_is_friday <dbl>,
    ## #   weekday_is_saturday <dbl>, weekday_is_sunday <dbl>, is_weekend <dbl>, LDA_00 <dbl>, LDA_01 <dbl>, LDA_02 <dbl>, LDA_03 <dbl>, LDA_04 <dbl>,
    ## #   global_subjectivity <dbl>, global_sentiment_polarity <dbl>, global_rate_positive_words <dbl>, global_rate_negative_words <dbl>,
    ## #   rate_positive_words <dbl>, rate_negative_words <dbl>, avg_positive_polarity <dbl>, min_positive_polarity <dbl>, max_positive_polarity <dbl>, …
…
``` r
set.seed(100)
newsIndex <- createDataPartition(news$shares, p = 0.7, list = FALSE)

newsTrain <- news[newsIndex, ]
newsTest <- news[-newsIndex, ]

newsTrain
```

    ## # A tibble: 4,382 × 62
    ##    url       shares weekday timed…¹ n_tok…² n_tok…³ n_uni…⁴ n_non…⁵ n_non…⁶ num_h…⁷ num_s…⁸ num_i…⁹ num_v…˟ avera…˟ num_k…˟ data_…˟ data_…˟ data_…˟
    ##    <chr>      <dbl> <fct>     <dbl>   <dbl>   <dbl>   <dbl>   <dbl>   <dbl>   <dbl>   <dbl>   <dbl>   <dbl>   <dbl>   <dbl>   <dbl>   <dbl>   <dbl>
    ##  1 http://m…    711 Monday      731       9     255   0.605    1.00   0.792       3       1       1       0    4.91       4       0       0       1
    ##  2 http://m…   3100 Monday      731       8     397   0.625    1.00   0.806      11       0       1       0    5.45       6       0       0       1
    ##  3 http://m…    852 Monday      731      13     244   0.560    1.00   0.680       3       2       1       0    4.42       4       0       0       1
    ##  4 http://m…    425 Monday      731      11     723   0.491    1.00   0.642      18       1       1       0    5.23       6       0       0       1
    ##  5 http://m…   3200 Monday      731       8     708   0.482    1.00   0.688       8       3       1       1    4.62       7       0       0       1
    ##  6 http://m…    575 Monday      731      10     142   0.655    1.00   0.792       2       1       1       0    4.27       5       0       0       1
    ##  7 http://m…    732 Monday      731       6     109   0.667    1.00   0.737       3       2       1       0    4.73       6       0       0       1
    ##  8 http://m…   1200 Tuesday     730      13     306   0.535    1.00   0.705       3       2       1       0    4.58      10       0       0       1
    ##  9 http://m…   2000 Wednes…     729       9     233   0.553    1.00   0.714       5       1       1       0    4.64       4       0       0       1
    ## 10 http://m…   1900 Wednes…     729      10     468   0.534    1.00   0.722       7       6       1       0    4.53       5       0       0       1
    ## # … with 4,372 more rows, 44 more variables: data_channel_is_socmed <dbl>, data_channel_is_tech <dbl>, data_channel_is_world <dbl>,
    ## #   kw_min_min <dbl>, kw_max_min <dbl>, kw_avg_min <dbl>, kw_min_max <dbl>, kw_max_max <dbl>, kw_avg_max <dbl>, kw_min_avg <dbl>,
    ## #   kw_max_avg <dbl>, kw_avg_avg <dbl>, self_reference_min_shares <dbl>, self_reference_max_shares <dbl>, self_reference_avg_sharess <dbl>,
    ## #   weekday_is_monday <dbl>, weekday_is_tuesday <dbl>, weekday_is_wednesday <dbl>, weekday_is_thursday <dbl>, weekday_is_friday <dbl>,
    ## #   weekday_is_saturday <dbl>, weekday_is_sunday <dbl>, is_weekend <dbl>, LDA_00 <dbl>, LDA_01 <dbl>, LDA_02 <dbl>, LDA_03 <dbl>, LDA_04 <dbl>,
    ## #   global_subjectivity <dbl>, global_sentiment_polarity <dbl>, global_rate_positive_words <dbl>, global_rate_negative_words <dbl>,
    ## #   rate_positive_words <dbl>, rate_negative_words <dbl>, avg_positive_polarity <dbl>, min_positive_polarity <dbl>, max_positive_polarity <dbl>, …

``` r
newsTest
```

    ## # A tibble: 1,876 × 62
    ##    url       shares weekday timed…¹ n_tok…² n_tok…³ n_uni…⁴ n_non…⁵ n_non…⁶ num_h…⁷ num_s…⁸ num_i…⁹ num_v…˟ avera…˟ num_k…˟ data_…˟ data_…˟ data_…˟
    ##    <chr>      <dbl> <fct>     <dbl>   <dbl>   <dbl>   <dbl>   <dbl>   <dbl>   <dbl>   <dbl>   <dbl>   <dbl>   <dbl>   <dbl>   <dbl>   <dbl>   <dbl>
    ##  1 http://m…   1500 Monday      731       9     211   0.575    1.00   0.664       3       1       1       0    4.39       6       0       0       1
    ##  2 http://m…    819 Monday      731      12     444   0.601    1.00   0.755       9       8      23       0    4.81      10       0       0       1
    ##  3 http://m…    459 Wednes…     729       9     759   0.499    1.00   0.693      17       9       1       0    4.66       6       0       0       1
    ##  4 http://m…    474 Wednes…     729      10     424   0.553    1.00   0.676       8       0       1       0    4.98       6       0       0       1
    ##  5 http://m…   1900 Wednes…     729      11     173   0.724    1.00   0.804       3       2       1       0    4.94      10       0       0       1
    ##  6 http://m…    648 Wednes…     729       9     330   0.502    1.00   0.585      12       2       1       0    4.66       7       0       0       1
    ##  7 http://m…    606 Wednes…     729      12     180   0.607    1.00   0.752       3       1       1       0    4.73       6       0       0       1
    ##  8 http://m…   1200 Thursd…     728      15     481   0.541    1.00   0.707       5       3       1       0    4.59       7       0       0       1
    ##  9 http://m…    794 Thursd…     728      11     347   0.585    1.00   0.739       7       0       0       1    5.07       7       0       0       1
    ## 10 http://m…   1300 Thursd…     728      11     255   0.632    1.00   0.807       5       0       1       0    4.86       5       0       0       1
    ## # … with 1,866 more rows, 44 more variables: data_channel_is_socmed <dbl>, data_channel_is_tech <dbl>, data_channel_is_world <dbl>,
    ## #   kw_min_min <dbl>, kw_max_min <dbl>, kw_avg_min <dbl>, kw_min_max <dbl>, kw_max_max <dbl>, kw_avg_max <dbl>, kw_min_avg <dbl>,
    ## #   kw_max_avg <dbl>, kw_avg_avg <dbl>, self_reference_min_shares <dbl>, self_reference_max_shares <dbl>, self_reference_avg_sharess <dbl>,
    ## #   weekday_is_monday <dbl>, weekday_is_tuesday <dbl>, weekday_is_wednesday <dbl>, weekday_is_thursday <dbl>, weekday_is_friday <dbl>,
    ## #   weekday_is_saturday <dbl>, weekday_is_sunday <dbl>, is_weekend <dbl>, LDA_00 <dbl>, LDA_01 <dbl>, LDA_02 <dbl>, LDA_03 <dbl>, LDA_04 <dbl>,
    ## #   global_subjectivity <dbl>, global_sentiment_polarity <dbl>, global_rate_positive_words <dbl>, global_rate_negative_words <dbl>,
    ## #   rate_positive_words <dbl>, rate_negative_words <dbl>, avg_positive_polarity <dbl>, min_positive_polarity <dbl>, max_positive_polarity <dbl>, …
…
