…
# Data

## Reading in the Data

Running the code chunk below reads in the online news popularity data
set using `read_csv()`.

``` r
newsOriginal <- read_csv(file = "./OnlineNewsPopularity.csv")
newsOriginal
```

    ## # A tibble: 39,644 × 61
    ##    url      timed…¹ n_tok…² n_tok…³ n_uni…⁴ n_non…⁵ n_non…⁶ num_h…⁷ num_s…⁸ num_i…⁹ num_v…˟ avera…˟ num_k…˟ data_…˟ data_…˟ data_…˟ data_…˟ data_…˟
    ##    <chr>      <dbl>   <dbl>   <dbl>   <dbl>   <dbl>   <dbl>   <dbl>   <dbl>   <dbl>   <dbl>   <dbl>   <dbl>   <dbl>   <dbl>   <dbl>   <dbl>   <dbl>
    ##  1 http://…     731      12     219   0.664    1.00   0.815       4       2       1       0    4.68       5       0       1       0       0       0
    ##  2 http://…     731       9     255   0.605    1.00   0.792       3       1       1       0    4.91       4       0       0       1       0       0
    ##  3 http://…     731       9     211   0.575    1.00   0.664       3       1       1       0    4.39       6       0       0       1       0       0
    ##  4 http://…     731       9     531   0.504    1.00   0.666       9       0       1       0    4.40       7       0       1       0       0       0
    ##  5 http://…     731      13    1072   0.416    1.00   0.541      19      19      20       0    4.68       7       0       0       0       0       1
    ##  6 http://…     731      10     370   0.560    1.00   0.698       2       2       0       0    4.36       9       0       0       0       0       1
    ##  7 http://…     731       8     960   0.418    1.00   0.550      21      20      20       0    4.65      10       1       0       0       0       0
    ##  8 http://…     731      12     989   0.434    1.00   0.572      20      20      20       0    4.62       9       0       0       0       0       1
    ##  9 http://…     731      11      97   0.670    1.00   0.837       2       0       0       0    4.86       7       0       0       0       0       1
    ## 10 http://…     731      10     231   0.636    1.00   0.797       4       1       1       1    5.09       5       0       0       0       0       0
    ## # … with 39,634 more rows, 43 more variables: data_channel_is_world <dbl>, kw_min_min <dbl>, kw_max_min <dbl>, kw_avg_min <dbl>, kw_min_max <dbl>,
    ## #   kw_max_max <dbl>, kw_avg_max <dbl>, kw_min_avg <dbl>, kw_max_avg <dbl>, kw_avg_avg <dbl>, self_reference_min_shares <dbl>,
    ## #   self_reference_max_shares <dbl>, self_reference_avg_sharess <dbl>, weekday_is_monday <dbl>, weekday_is_tuesday <dbl>,
    ## #   weekday_is_wednesday <dbl>, weekday_is_thursday <dbl>, weekday_is_friday <dbl>, weekday_is_saturday <dbl>, weekday_is_sunday <dbl>,
    ## #   is_weekend <dbl>, LDA_00 <dbl>, LDA_01 <dbl>, LDA_02 <dbl>, LDA_03 <dbl>, LDA_04 <dbl>, global_subjectivity <dbl>,
    ## #   global_sentiment_polarity <dbl>, global_rate_positive_words <dbl>, global_rate_negative_words <dbl>, rate_positive_words <dbl>,
    ## #   rate_negative_words <dbl>, avg_positive_polarity <dbl>, min_positive_polarity <dbl>, max_positive_polarity <dbl>, …

## Modifying the Data

Running the code chunk below subsets the data to only include
observations for the data channel we’re interested in.

``` r
news <- newsOriginal %>% filter(get(params$dataChannel) == 1)
news
```

    ## # A tibble: 8,427 × 61
    ##    url      timed…¹ n_tok…² n_tok…³ n_uni…⁴ n_non…⁵ n_non…⁶ num_h…⁷ num_s…⁸ num_i…⁹ num_v…˟ avera…˟ num_k…˟ data_…˟ data_…˟ data_…˟ data_…˟ data_…˟
    ##    <chr>      <dbl>   <dbl>   <dbl>   <dbl>   <dbl>   <dbl>   <dbl>   <dbl>   <dbl>   <dbl>   <dbl>   <dbl>   <dbl>   <dbl>   <dbl>   <dbl>   <dbl>
    ##  1 http://…     731      10     231   0.636    1.00   0.797       4       1       1       1    5.09       5       0       0       0       0       0
    ##  2 http://…     731       9    1248   0.490    1.00   0.732      11       0       1       0    4.62       8       0       0       0       0       0
    ##  3 http://…     731      12     682   0.460    1.00   0.635      10       0       1       0    4.62       6       0       0       0       0       0
    ##  4 http://…     731       9     391   0.510    1.00   0.650       9       2       1       1    5.30       7       0       0       0       0       0
    ##  5 http://…     731      11     125   0.675    1.00   0.797       1       1       1       0    4.82       6       0       0       0       0       0
    ##  6 http://…     731      11     799   0.504    1.00   0.738       8       6       1       0    4.70       6       0       0       0       0       0
    ##  7 http://…     731      11     317   0.611    1.00   0.729       7       6       1       0    5.24       5       0       0       0       0       0
    ##  8 http://…     731      11     399   0.598    1.00   0.806       8       0       1       0    4.58       7       0       0       0       0       0
    ##  9 http://…     731       9     443   0.467    1.00   0.589       3       1       1       0    5.01       6       0       0       0       0       0
    ## 10 http://…     730      12     288   0.589    1.00   0.726       5       2       0       0    4.38       6       0       0       0       0       0
    ## # … with 8,417 more rows, 43 more variables: data_channel_is_world <dbl>, kw_min_min <dbl>, kw_max_min <dbl>, kw_avg_min <dbl>, kw_min_max <dbl>,
    ## #   kw_max_max <dbl>, kw_avg_max <dbl>, kw_min_avg <dbl>, kw_max_avg <dbl>, kw_avg_avg <dbl>, self_reference_min_shares <dbl>,
    ## #   self_reference_max_shares <dbl>, self_reference_avg_sharess <dbl>, weekday_is_monday <dbl>, weekday_is_tuesday <dbl>,
    ## #   weekday_is_wednesday <dbl>, weekday_is_thursday <dbl>, weekday_is_friday <dbl>, weekday_is_saturday <dbl>, weekday_is_sunday <dbl>,
    ## #   is_weekend <dbl>, LDA_00 <dbl>, LDA_01 <dbl>, LDA_02 <dbl>, LDA_03 <dbl>, LDA_04 <dbl>, global_subjectivity <dbl>,
    ## #   global_sentiment_polarity <dbl>, global_rate_positive_words <dbl>, global_rate_negative_words <dbl>, rate_positive_words <dbl>,
    ## #   rate_negative_words <dbl>, avg_positive_polarity <dbl>, min_positive_polarity <dbl>, max_positive_polarity <dbl>, …
…
news$weekday <- factor(news$weekday, levels=c("Monday", "Tuesday", "Wednesday",
                                              "Thursday", "Friday", "Saturday", "Sunday"))
levels(news$weekday)
```

    ## [1] "Monday"    "Tuesday"   "Wednesday" "Thursday"  "Friday"    "Saturday"  "Sunday"

``` r
news
```

    ## # A tibble: 8,427 × 62
    ##    url       shares weekday timed…¹ n_tok…² n_tok…³ n_uni…⁴ n_non…⁵ n_non…⁶ num_h…⁷ num_s…⁸ num_i…⁹ num_v…˟ avera…˟ num_k…˟ data_…˟ data_…˟ data_…˟
    ##    <chr>      <dbl> <fct>     <dbl>   <dbl>   <dbl>   <dbl>   <dbl>   <dbl>   <dbl>   <dbl>   <dbl>   <dbl>   <dbl>   <dbl>   <dbl>   <dbl>   <dbl>
    ##  1 http://m…    710 Monday      731      10     231   0.636    1.00   0.797       4       1       1       1    5.09       5       0       0       0
    ##  2 http://m…   2200 Monday      731       9    1248   0.490    1.00   0.732      11       0       1       0    4.62       8       0       0       0
    ##  3 http://m…   1600 Monday      731      12     682   0.460    1.00   0.635      10       0       1       0    4.62       6       0       0       0
    ##  4 http://m…    598 Monday      731       9     391   0.510    1.00   0.650       9       2       1       1    5.30       7       0       0       0
    ##  5 http://m…   1500 Monday      731      11     125   0.675    1.00   0.797       1       1       1       0    4.82       6       0       0       0
    ##  6 http://m…    504 Monday      731      11     799   0.504    1.00   0.738       8       6       1       0    4.70       6       0       0       0
    ##  7 http://m…   1800 Monday      731      11     317   0.611    1.00   0.729       7       6       1       0    5.24       5       0       0       0
    ##  8 http://m…   1200 Monday      731      11     399   0.598    1.00   0.806       8       0       1       0    4.58       7       0       0       0
    ##  9 http://m…    495 Monday      731       9     443   0.467    1.00   0.589       3       1       1       0    5.01       6       0       0       0
    ## 10 http://m…    755 Tuesday     730      12     288   0.589    1.00   0.726       5       2       0       0    4.38       6       0       0       0
    ## # … with 8,417 more rows, 44 more variables: data_channel_is_socmed <dbl>, data_channel_is_tech <dbl>, data_channel_is_world <dbl>,
    ## #   kw_min_min <dbl>, kw_max_min <dbl>, kw_avg_min <dbl>, kw_min_max <dbl>, kw_max_max <dbl>, kw_avg_max <dbl>, kw_min_avg <dbl>,
    ## #   kw_max_avg <dbl>, kw_avg_avg <dbl>, self_reference_min_shares <dbl>, self_reference_max_shares <dbl>, self_reference_avg_sharess <dbl>,
    ## #   weekday_is_monday <dbl>, weekday_is_tuesday <dbl>, weekday_is_wednesday <dbl>, weekday_is_thursday <dbl>, weekday_is_friday <dbl>,
    ## #   weekday_is_saturday <dbl>, weekday_is_sunday <dbl>, is_weekend <dbl>, LDA_00 <dbl>, LDA_01 <dbl>, LDA_02 <dbl>, LDA_03 <dbl>, LDA_04 <dbl>,
    ## #   global_subjectivity <dbl>, global_sentiment_polarity <dbl>, global_rate_positive_words <dbl>, global_rate_negative_words <dbl>,
    ## #   rate_positive_words <dbl>, rate_negative_words <dbl>, avg_positive_polarity <dbl>, min_positive_polarity <dbl>, max_positive_polarity <dbl>, …
…
``` r
set.seed(100)
newsIndex <- createDataPartition(news$shares, p = 0.7, list = FALSE)

newsTrain <- news[newsIndex, ]
newsTest <- news[-newsIndex, ]

newsTrain
```

    ## # A tibble: 5,900 × 62
    ##    url       shares weekday timed…¹ n_tok…² n_tok…³ n_uni…⁴ n_non…⁵ n_non…⁶ num_h…⁷ num_s…⁸ num_i…⁹ num_v…˟ avera…˟ num_k…˟ data_…˟ data_…˟ data_…˟
    ##    <chr>      <dbl> <fct>     <dbl>   <dbl>   <dbl>   <dbl>   <dbl>   <dbl>   <dbl>   <dbl>   <dbl>   <dbl>   <dbl>   <dbl>   <dbl>   <dbl>   <dbl>
    ##  1 http://m…    710 Monday      731      10     231   0.636    1.00   0.797       4       1       1       1    5.09       5       0       0       0
    ##  2 http://m…   1600 Monday      731      12     682   0.460    1.00   0.635      10       0       1       0    4.62       6       0       0       0
    ##  3 http://m…    598 Monday      731       9     391   0.510    1.00   0.650       9       2       1       1    5.30       7       0       0       0
    ##  4 http://m…   1500 Monday      731      11     125   0.675    1.00   0.797       1       1       1       0    4.82       6       0       0       0
    ##  5 http://m…    504 Monday      731      11     799   0.504    1.00   0.738       8       6       1       0    4.70       6       0       0       0
    ##  6 http://m…   1800 Monday      731      11     317   0.611    1.00   0.729       7       6       1       0    5.24       5       0       0       0
    ##  7 http://m…   1200 Monday      731      11     399   0.598    1.00   0.806       8       0       1       0    4.58       7       0       0       0
    ##  8 http://m…    495 Monday      731       9     443   0.467    1.00   0.589       3       1       1       0    5.01       6       0       0       0
    ##  9 http://m…    755 Tuesday     730      12     288   0.589    1.00   0.726       5       2       0       0    4.38       6       0       0       0
    ## 10 http://m…    468 Tuesday     730      10     414   0.607    1.00   0.777       8       0       1       0    4.98       6       0       0       0
    ## # … with 5,890 more rows, 44 more variables: data_channel_is_socmed <dbl>, data_channel_is_tech <dbl>, data_channel_is_world <dbl>,
    ## #   kw_min_min <dbl>, kw_max_min <dbl>, kw_avg_min <dbl>, kw_min_max <dbl>, kw_max_max <dbl>, kw_avg_max <dbl>, kw_min_avg <dbl>,
    ## #   kw_max_avg <dbl>, kw_avg_avg <dbl>, self_reference_min_shares <dbl>, self_reference_max_shares <dbl>, self_reference_avg_sharess <dbl>,
    ## #   weekday_is_monday <dbl>, weekday_is_tuesday <dbl>, weekday_is_wednesday <dbl>, weekday_is_thursday <dbl>, weekday_is_friday <dbl>,
    ## #   weekday_is_saturday <dbl>, weekday_is_sunday <dbl>, is_weekend <dbl>, LDA_00 <dbl>, LDA_01 <dbl>, LDA_02 <dbl>, LDA_03 <dbl>, LDA_04 <dbl>,
    ## #   global_subjectivity <dbl>, global_sentiment_polarity <dbl>, global_rate_positive_words <dbl>, global_rate_negative_words <dbl>,
    ## #   rate_positive_words <dbl>, rate_negative_words <dbl>, avg_positive_polarity <dbl>, min_positive_polarity <dbl>, max_positive_polarity <dbl>, …

``` r
newsTest
```

    ## # A tibble: 2,527 × 62
    ##    url       shares weekday timed…¹ n_tok…² n_tok…³ n_uni…⁴ n_non…⁵ n_non…⁶ num_h…⁷ num_s…⁸ num_i…⁹ num_v…˟ avera…˟ num_k…˟ data_…˟ data_…˟ data_…˟
    ##    <chr>      <dbl> <fct>     <dbl>   <dbl>   <dbl>   <dbl>   <dbl>   <dbl>   <dbl>   <dbl>   <dbl>   <dbl>   <dbl>   <dbl>   <dbl>   <dbl>   <dbl>
    ##  1 http://m…   2200 Monday      731       9    1248   0.490    1.00   0.732      11       0       1       0    4.62       8       0       0       0
    ##  2 http://m…    971 Wednes…     729      10     498   0.535    1.00   0.702       7       0       1       0    4.88       6       0       0       0
    ##  3 http://m…   1400 Wednes…     729      12     540   0.370    1.00   0.505       1       1      10       0    4.15      10       0       0       0
    ##  4 http://m…   5600 Wednes…     729       6     389   0.556    1.00   0.726       9       5       1       1    4.32       7       0       0       0
    ##  5 http://m…    412 Wednes…     729      12     537   0.538    1.00   0.742       2       0       1       0    4.98       6       0       0       0
    ##  6 http://m…    373 Wednes…     729      10     614   0.531    1.00   0.750      11       2       1       0    4.76       4       0       0       0
    ##  7 http://m…   2800 Wednes…     729      10     372   0.549    1.00   0.689       4       0       1       0    5.03       5       0       0       0
    ##  8 http://m…    450 Wednes…     729       9     230   0.670    1.00   0.879       7       0       1       1    4.80       7       0       0       0
    ##  9 http://m…    529 Wednes…     729      11     365   0.581    1.00   0.742       9       8       1       0    4.70       7       0       0       0
    ## 10 http://m…   5500 Thursd…     728      10     317   0.562    1.00   0.674       6       3       1       0    4.99       7       0       0       0
    ## # … with 2,517 more rows, 44 more variables: data_channel_is_socmed <dbl>, data_channel_is_tech <dbl>, data_channel_is_world <dbl>,
    ## #   kw_min_min <dbl>, kw_max_min <dbl>, kw_avg_min <dbl>, kw_min_max <dbl>, kw_max_max <dbl>, kw_avg_max <dbl>, kw_min_avg <dbl>,
    ## #   kw_max_avg <dbl>, kw_avg_avg <dbl>, self_reference_min_shares <dbl>, self_reference_max_shares <dbl>, self_reference_avg_sharess <dbl>,
    ## #   weekday_is_monday <dbl>, weekday_is_tuesday <dbl>, weekday_is_wednesday <dbl>, weekday_is_thursday <dbl>, weekday_is_friday <dbl>,
    ## #   weekday_is_saturday <dbl>, weekday_is_sunday <dbl>, is_weekend <dbl>, LDA_00 <dbl>, LDA_01 <dbl>, LDA_02 <dbl>, LDA_03 <dbl>, LDA_04 <dbl>,
    ## #   global_subjectivity <dbl>, global_sentiment_polarity <dbl>, global_rate_positive_words <dbl>, global_rate_negative_words <dbl>,
    ## #   rate_positive_words <dbl>, rate_negative_words <dbl>, avg_positive_polarity <dbl>, min_positive_polarity <dbl>, max_positive_polarity <dbl>, …
…
