…
# Data

## Reading in the Data

Running the code chunk below reads in the online news popularity data
set using `read_csv()`.

``` r
newsOriginal <- read_csv(file = "./OnlineNewsPopularity.csv")
newsOriginal
```

    ## # A tibble: 39,644 × 61
    ##    url      timed…¹ n_tok…² n_tok…³ n_uni…⁴ n_non…⁵ n_non…⁶ num_h…⁷ num_s…⁸ num_i…⁹ num_v…˟ avera…˟ num_k…˟ data_…˟ data_…˟ data_…˟ data_…˟ data_…˟
    ##    <chr>      <dbl>   <dbl>   <dbl>   <dbl>   <dbl>   <dbl>   <dbl>   <dbl>   <dbl>   <dbl>   <dbl>   <dbl>   <dbl>   <dbl>   <dbl>   <dbl>   <dbl>
    ##  1 http://…     731      12     219   0.664    1.00   0.815       4       2       1       0    4.68       5       0       1       0       0       0
    ##  2 http://…     731       9     255   0.605    1.00   0.792       3       1       1       0    4.91       4       0       0       1       0       0
    ##  3 http://…     731       9     211   0.575    1.00   0.664       3       1       1       0    4.39       6       0       0       1       0       0
    ##  4 http://…     731       9     531   0.504    1.00   0.666       9       0       1       0    4.40       7       0       1       0       0       0
    ##  5 http://…     731      13    1072   0.416    1.00   0.541      19      19      20       0    4.68       7       0       0       0       0       1
    ##  6 http://…     731      10     370   0.560    1.00   0.698       2       2       0       0    4.36       9       0       0       0       0       1
    ##  7 http://…     731       8     960   0.418    1.00   0.550      21      20      20       0    4.65      10       1       0       0       0       0
    ##  8 http://…     731      12     989   0.434    1.00   0.572      20      20      20       0    4.62       9       0       0       0       0       1
    ##  9 http://…     731      11      97   0.670    1.00   0.837       2       0       0       0    4.86       7       0       0       0       0       1
    ## 10 http://…     731      10     231   0.636    1.00   0.797       4       1       1       1    5.09       5       0       0       0       0       0
    ## # … with 39,634 more rows, 43 more variables: data_channel_is_world <dbl>, kw_min_min <dbl>, kw_max_min <dbl>, kw_avg_min <dbl>, kw_min_max <dbl>,
    ## #   kw_max_max <dbl>, kw_avg_max <dbl>, kw_min_avg <dbl>, kw_max_avg <dbl>, kw_avg_avg <dbl>, self_reference_min_shares <dbl>,
    ## #   self_reference_max_shares <dbl>, self_reference_avg_sharess <dbl>, weekday_is_monday <dbl>, weekday_is_tuesday <dbl>,
    ## #   weekday_is_wednesday <dbl>, weekday_is_thursday <dbl>, weekday_is_friday <dbl>, weekday_is_saturday <dbl>, weekday_is_sunday <dbl>,
    ## #   is_weekend <dbl>, LDA_00 <dbl>, LDA_01 <dbl>, LDA_02 <dbl>, LDA_03 <dbl>, LDA_04 <dbl>, global_subjectivity <dbl>,
    ## #   global_sentiment_polarity <dbl>, global_rate_positive_words <dbl>, global_rate_negative_words <dbl>, rate_positive_words <dbl>,
    ## #   rate_negative_words <dbl>, avg_positive_polarity <dbl>, min_positive_polarity <dbl>, max_positive_polarity <dbl>, …

## Modifying the Data

Running the code chunk below subsets the data to only include
observations for the data channel we’re interested in.

``` r
news <- newsOriginal %>% filter(get(params$dataChannel) == 1)
news
```

    ## # A tibble: 2,323 × 61
    ##    url      timed…¹ n_tok…² n_tok…³ n_uni…⁴ n_non…⁵ n_non…⁶ num_h…⁷ num_s…⁸ num_i…⁹ num_v…˟ avera…˟ num_k…˟ data_…˟ data_…˟ data_…˟ data_…˟ data_…˟
    ##    <chr>      <dbl>   <dbl>   <dbl>   <dbl>   <dbl>   <dbl>   <dbl>   <dbl>   <dbl>   <dbl>   <dbl>   <dbl>   <dbl>   <dbl>   <dbl>   <dbl>   <dbl>
    ##  1 http://…     731       8     257   0.568    1.00   0.671       9       7       0       1    4.64       9       0       0       0       1       0
    ##  2 http://…     731       8     218   0.663    1.00   0.688      14       3      11       0    4.44      10       0       0       0       1       0
    ##  3 http://…     731       9    1226   0.410    1.00   0.617      10      10       1       1    4.39       7       0       0       0       1       0
    ##  4 http://…     731      10    1121   0.451    1.00   0.629      15      11       1       0    4.79       6       0       0       0       1       0
    ##  5 http://…     729       9     168   0.778    1.00   0.865       6       4      11       0    4.68       9       0       0       0       1       0
    ##  6 http://…     729       9     100   0.760    1.00   0.803       3       2       1       0    4.45       6       0       0       0       1       0
    ##  7 http://…     729      10    1596   0.420    1.00   0.632      19      10       8       0    4.63       6       0       0       0       1       0
    ##  8 http://…     728       7     518   0.486    1.00   0.654      11       1       1       0    4.79       7       0       0       0       1       0
    ##  9 http://…     727       8     358   0.503    1.00   0.687       4       4       1       0    4.25       4       0       0       0       1       0
    ## 10 http://…     727       6     358   0.622    1.00   0.777      24       6       1       0    5.39       8       0       0       0       1       0
    ## # … with 2,313 more rows, 43 more variables: data_channel_is_world <dbl>, kw_min_min <dbl>, kw_max_min <dbl>, kw_avg_min <dbl>, kw_min_max <dbl>,
    ## #   kw_max_max <dbl>, kw_avg_max <dbl>, kw_min_avg <dbl>, kw_max_avg <dbl>, kw_avg_avg <dbl>, self_reference_min_shares <dbl>,
    ## #   self_reference_max_shares <dbl>, self_reference_avg_sharess <dbl>, weekday_is_monday <dbl>, weekday_is_tuesday <dbl>,
    ## #   weekday_is_wednesday <dbl>, weekday_is_thursday <dbl>, weekday_is_friday <dbl>, weekday_is_saturday <dbl>, weekday_is_sunday <dbl>,
    ## #   is_weekend <dbl>, LDA_00 <dbl>, LDA_01 <dbl>, LDA_02 <dbl>, LDA_03 <dbl>, LDA_04 <dbl>, global_subjectivity <dbl>,
    ## #   global_sentiment_polarity <dbl>, global_rate_positive_words <dbl>, global_rate_negative_words <dbl>, rate_positive_words <dbl>,
    ## #   rate_negative_words <dbl>, avg_positive_polarity <dbl>, min_positive_polarity <dbl>, max_positive_polarity <dbl>, …
…
news$weekday <- factor(news$weekday, levels=c("Monday", "Tuesday", "Wednesday",
                                              "Thursday", "Friday", "Saturday", "Sunday"))
levels(news$weekday)
```

    ## [1] "Monday"    "Tuesday"   "Wednesday" "Thursday"  "Friday"    "Saturday"  "Sunday"

``` r
news
```

    ## # A tibble: 2,323 × 62
    ##    url       shares weekday timed…¹ n_tok…² n_tok…³ n_uni…⁴ n_non…⁵ n_non…⁶ num_h…⁷ num_s…⁸ num_i…⁹ num_v…˟ avera…˟ num_k…˟ data_…˟ data_…˟ data_…˟
    ##    <chr>      <dbl> <fct>     <dbl>   <dbl>   <dbl>   <dbl>   <dbl>   <dbl>   <dbl>   <dbl>   <dbl>   <dbl>   <dbl>   <dbl>   <dbl>   <dbl>   <dbl>
    ##  1 http://m…   2600 Monday      731       8     257   0.568    1.00   0.671       9       7       0       1    4.64       9       0       0       0
    ##  2 http://m…    690 Monday      731       8     218   0.663    1.00   0.688      14       3      11       0    4.44      10       0       0       0
    ##  3 http://m…   4800 Monday      731       9    1226   0.410    1.00   0.617      10      10       1       1    4.39       7       0       0       0
    ##  4 http://m…    851 Monday      731      10    1121   0.451    1.00   0.629      15      11       1       0    4.79       6       0       0       0
    ##  5 http://m…   4800 Wednes…     729       9     168   0.778    1.00   0.865       6       4      11       0    4.68       9       0       0       0
    ##  6 http://m…   9200 Wednes…     729       9     100   0.760    1.00   0.803       3       2       1       0    4.45       6       0       0       0
    ##  7 http://m…   1600 Wednes…     729      10    1596   0.420    1.00   0.632      19      10       8       0    4.63       6       0       0       0
    ##  8 http://m…    775 Thursd…     728       7     518   0.486    1.00   0.654      11       1       1       0    4.79       7       0       0       0
    ##  9 http://m…  18200 Friday      727       8     358   0.503    1.00   0.687       4       4       1       0    4.25       4       0       0       0
    ## 10 http://m…   1600 Friday      727       6     358   0.622    1.00   0.777      24       6       1       0    5.39       8       0       0       0
    ## # … with 2,313 more rows, 44 more variables: data_channel_is_socmed <dbl>, data_channel_is_tech <dbl>, data_channel_is_world <dbl>,
    ## #   kw_min_min <dbl>, kw_max_min <dbl>, kw_avg_min <dbl>, kw_min_max <dbl>, kw_max_max <dbl>, kw_avg_max <dbl>, kw_min_avg <dbl>,
    ## #   kw_max_avg <dbl>, kw_avg_avg <dbl>, self_reference_min_shares <dbl>, self_reference_max_shares <dbl>, self_reference_avg_sharess <dbl>,
    ## #   weekday_is_monday <dbl>, weekday_is_tuesday <dbl>, weekday_is_wednesday <dbl>, weekday_is_thursday <dbl>, weekday_is_friday <dbl>,
    ## #   weekday_is_saturday <dbl>, weekday_is_sunday <dbl>, is_weekend <dbl>, LDA_00 <dbl>, LDA_01 <dbl>, LDA_02 <dbl>, LDA_03 <dbl>, LDA_04 <dbl>,
    ## #   global_subjectivity <dbl>, global_sentiment_polarity <dbl>, global_rate_positive_words <dbl>, global_rate_negative_words <dbl>,
    ## #   rate_positive_words <dbl>, rate_negative_words <dbl>, avg_positive_polarity <dbl>, min_positive_polarity <dbl>, max_positive_polarity <dbl>, …
…
``` r
set.seed(100)
newsIndex <- createDataPartition(news$shares, p = 0.7, list = FALSE)

newsTrain <- news[newsIndex, ]
newsTest <- news[-newsIndex, ]

newsTrain
```

    ## # A tibble: 1,628 × 62
    ##    url       shares weekday timed…¹ n_tok…² n_tok…³ n_uni…⁴ n_non…⁵ n_non…⁶ num_h…⁷ num_s…⁸ num_i…⁹ num_v…˟ avera…˟ num_k…˟ data_…˟ data_…˟ data_…˟
    ##    <chr>      <dbl> <fct>     <dbl>   <dbl>   <dbl>   <dbl>   <dbl>   <dbl>   <dbl>   <dbl>   <dbl>   <dbl>   <dbl>   <dbl>   <dbl>   <dbl>   <dbl>
    ##  1 http://m…   2600 Monday      731       8     257   0.568    1.00   0.671       9       7       0       1    4.64       9       0       0       0
    ##  2 http://m…    690 Monday      731       8     218   0.663    1.00   0.688      14       3      11       0    4.44      10       0       0       0
    ##  3 http://m…   4800 Monday      731       9    1226   0.410    1.00   0.617      10      10       1       1    4.39       7       0       0       0
    ##  4 http://m…    851 Monday      731      10    1121   0.451    1.00   0.629      15      11       1       0    4.79       6       0       0       0
    ##  5 http://m…   9200 Wednes…     729       9     100   0.760    1.00   0.803       3       2       1       0    4.45       6       0       0       0
    ##  6 http://m…   1600 Wednes…     729      10    1596   0.420    1.00   0.632      19      10       8       0    4.63       6       0       0       0
    ##  7 http://m…    775 Thursd…     728       7     518   0.486    1.00   0.654      11       1       1       0    4.79       7       0       0       0
    ##  8 http://m…  18200 Friday      727       8     358   0.503    1.00   0.687       4       4       1       0    4.25       4       0       0       0
    ##  9 http://m…   1600 Friday      727       6     358   0.622    1.00   0.777      24       6       1       0    5.39       8       0       0       0
    ## 10 http://m…   9000 Friday      727      11     151   0.710    1.00   0.788       5       1       0       0    4.40       9       0       0       0
    ## # … with 1,618 more rows, 44 more variables: data_channel_is_socmed <dbl>, data_channel_is_tech <dbl>, data_channel_is_world <dbl>,
    ## #   kw_min_min <dbl>, kw_max_min <dbl>, kw_avg_min <dbl>, kw_min_max <dbl>, kw_max_max <dbl>, kw_avg_max <dbl>, kw_min_avg <dbl>,
    ## #   kw_max_avg <dbl>, kw_avg_avg <dbl>, self_reference_min_shares <dbl>, self_reference_max_shares <dbl>, self_reference_avg_sharess <dbl>,
    ## #   weekday_is_monday <dbl>, weekday_is_tuesday <dbl>, weekday_is_wednesday <dbl>, weekday_is_thursday <dbl>, weekday_is_friday <dbl>,
    ## #   weekday_is_saturday <dbl>, weekday_is_sunday <dbl>, is_weekend <dbl>, LDA_00 <dbl>, LDA_01 <dbl>, LDA_02 <dbl>, LDA_03 <dbl>, LDA_04 <dbl>,
    ## #   global_subjectivity <dbl>, global_sentiment_polarity <dbl>, global_rate_positive_words <dbl>, global_rate_negative_words <dbl>,
    ## #   rate_positive_words <dbl>, rate_negative_words <dbl>, avg_positive_polarity <dbl>, min_positive_polarity <dbl>, max_positive_polarity <dbl>, …

``` r
newsTest
```

    ## # A tibble: 695 × 62
    ##    url       shares weekday timed…¹ n_tok…² n_tok…³ n_uni…⁴ n_non…⁵ n_non…⁶ num_h…⁷ num_s…⁸ num_i…⁹ num_v…˟ avera…˟ num_k…˟ data_…˟ data_…˟ data_…˟
    ##    <chr>      <dbl> <fct>     <dbl>   <dbl>   <dbl>   <dbl>   <dbl>   <dbl>   <dbl>   <dbl>   <dbl>   <dbl>   <dbl>   <dbl>   <dbl>   <dbl>   <dbl>
    ##  1 http://m…   4800 Wednes…     729       9     168   0.778    1.00   0.865       6       4      11       0    4.68       9       0       0       0
    ##  2 http://m…   1700 Saturd…     726      13     293   0.585    1.00   0.759       6       5       1       0    4.67       8       0       0       0
    ##  3 http://m…   1100 Monday      724       8     263   0.664    1.00   0.673      14       3      11       0    4.31      10       0       0       0
    ##  4 http://m…   6000 Monday      724       9     563   0.585    1.00   0.766      13       0       1       0    5.54       7       0       0       0
    ##  5 http://m…   5400 Tuesday     723       9     912   0.424    1.00   0.611       5       5       1       0    4.35       6       0       0       0
    ##  6 http://m…   3800 Tuesday     723      11     403   0.478    1.00   0.617       4       2       0       1    4.72       6       0       0       0
    ##  7 http://m…   1200 Wednes…     722      14     316   0.584    1.00   0.825       8       6       1       0    4.47       5       0       0       0
    ##  8 http://m…   1500 Wednes…     722       8     405   0.432    1.00   0.574       3       2       9       0    4.03       7       0       0       0
    ##  9 http://m…   5800 Friday      720       7    1152   0.331    1.00   0.506      11       5       1       1    4.64       7       0       0       0
    ## 10 http://m…   3400 Friday      720      11     332   0.561    1.00   0.692       8       7       1       0    4.78       5       0       0       0
    ## # … with 685 more rows, 44 more variables: data_channel_is_socmed <dbl>, data_channel_is_tech <dbl>, data_channel_is_world <dbl>,
    ## #   kw_min_min <dbl>, kw_max_min <dbl>, kw_avg_min <dbl>, kw_min_max <dbl>, kw_max_max <dbl>, kw_avg_max <dbl>, kw_min_avg <dbl>,
    ## #   kw_max_avg <dbl>, kw_avg_avg <dbl>, self_reference_min_shares <dbl>, self_reference_max_shares <dbl>, self_reference_avg_sharess <dbl>,
    ## #   weekday_is_monday <dbl>, weekday_is_tuesday <dbl>, weekday_is_wednesday <dbl>, weekday_is_thursday <dbl>, weekday_is_friday <dbl>,
    ## #   weekday_is_saturday <dbl>, weekday_is_sunday <dbl>, is_weekend <dbl>, LDA_00 <dbl>, LDA_01 <dbl>, LDA_02 <dbl>, LDA_03 <dbl>, LDA_04 <dbl>,
    ## #   global_subjectivity <dbl>, global_sentiment_polarity <dbl>, global_rate_positive_words <dbl>, global_rate_negative_words <dbl>,
    ## #   rate_positive_words <dbl>, rate_negative_words <dbl>, avg_positive_polarity <dbl>, min_positive_polarity <dbl>, max_positive_polarity <dbl>, …
…
